<svg width="17" height="17" viewBox="0 0 17 17" fill="none" xmlns="http://www.w3.org/2000/svg">
<g clip-path="url(#clip0)">
<path d="M-2.36827 7.13173L18.6317 7.13173V9.13173L-2.36827 9.13173V7.13173Z" fill="white"/>
<path d="M7.13173 18.6317V-2.36827L9.13173 -2.36827V18.6317L7.13173 18.6317Z" fill="white"/>
</g>
<defs>
<clipPath id="clip0">
<rect width="17" height="17" fill="white"/>
</clipPath>
</defs>
</svg>
