<svg id="menu-icon" xmlns="http://www.w3.org/2000/svg" width="47" height="47" viewBox="0 0 47 47">
  <defs>
    <style>
      .cls-1 {
        fill: #fff;
        fill-rule: evenodd;
      }

      .cls-2 {
        fill: none;
        stroke: #fff;
        stroke-width: 1px;
        opacity: 0.25;
      }
    </style>
  </defs>
  <path class="cls-1" d="M1297.99,50V47h28v3h-28Z" transform="translate(-1288.5 -24.5)"/>
  <path class="cls-1" d="M1297.99,56V53h19v3h-19Z" transform="translate(-1288.5 -24.5)"/>
  <path class="cls-1" d="M1297.99,44V41h28v3h-28Z" transform="translate(-1288.5 -24.5)"/>
  <rect class="cls-2" x="0.5" y="0.5" width="46" height="46"/>
</svg>
